learning-fpga/chronomètre/simulation/qsim/chronometre.msim.vcd
$comment
	File created using the following command:
		vcd file chronometre.msim.vcd -direction
$end
$date
	Thu Dec 17 22:45:54 2015
$end
$version
	ModelSim Version 10.1d
$end
$timescale
	1ps
$end
$scope module Compteur16_vlg_vec_tst $end
$var reg 1 ! CLK_in $end
$var reg 1 " RESET $end
$var wire 1 # CLK_Out $end
$var wire 1 $ V_COUNT [3] $end
$var wire 1 % V_COUNT [2] $end
$var wire 1 & V_COUNT [1] $end
$var wire 1 ' V_COUNT [0] $end
$var wire 1 ( sampler $end
$scope module i1 $end
$var wire 1 ) gnd $end
$var wire 1 * vcc $end
$var wire 1 + unknown $end
$var tri1 1 , devclrn $end
$var tri1 1 - devpor $end
$var tri1 1 . devoe $end
$var wire 1 / CLK_in~combout $end
$var wire 1 0 CLK_in~clkctrl_outclk $end
$var wire 1 1 Cpt_int[0]~3_combout $end
$var wire 1 2 RESET~combout $end
$var wire 1 3 RESET~clkctrl_outclk $end
$var wire 1 4 Cpt_int[1]~0_combout $end
$var wire 1 5 Cpt_int[2]~1_combout $end
$var wire 1 6 Cpt_int[3]~2_combout $end
$var wire 1 7 Sgn_out~0_combout $end
$var wire 1 8 Sgn_out~1_combout $end
$var wire 1 9 Sgn_out~regout $end
$var wire 1 : Cpt_int [3] $end
$var wire 1 ; Cpt_int [2] $end
$var wire 1 < Cpt_int [1] $end
$var wire 1 = Cpt_int [0] $end
$upscope $end
$upscope $end
$enddefinitions $end
#0
$dumpvars
0!
0"
0#
0'
0&
0%
0$
x(
0)
1*
x+
1,
1-
1.
0/
00
11
02
03
04
05
06
07
08
09
0=
0<
0;
0:
$end
#3000
1!
1/
10
0(
1=
14
01
1'
#6000
0!
0/
00
1(
#9000
1!
1/
10
0(
1<
0=
11
1&
0'
#12000
0!
0/
00
1(
#15000
1!
1/
10
0(
1=
15
04
01
1'
#18000
0!
0/
00
1(
#21000
1!
1/
10
0(
1;
0<
0=
11
1%
0&
0'
#24000
0!
0/
00
1(
#27000
1!
1/
10
0(
1=
14
01
1'
#30000
0!
0/
00
1(
#33000
1!
1/
10
0(
1<
0=
11
1&
0'
#36000
0!
0/
00
1(
#39000
1!
1/
10
0(
1=
16
05
04
01
1'
#42000
0!
0/
00
1(
#45000
1!
1/
10
0(
1:
0;
0<
0=
11
1$
0%
0&
0'
#48000
0!
0/
00
1(
#51000
1!
1/
10
0(
1=
14
01
1'
#54000
0!
0/
00
1(
#57000
1!
1/
10
0(
1<
0=
11
1&
0'
#60000
0!
0/
00
1(
#63000
1!
1/
10
0(
1=
15
04
01
1'
#66000
0!
0/
00
1(
#69000
1!
1/
10
0(
1;
0<
0=
11
1%
0&
0'
#72000
0!
0/
00
1(
#75000
1!
1/
10
0(
1=
14
01
1'
#78000
0!
0/
00
1(
#81000
1!
1/
10
0(
1<
0=
11
1&
0'
#84000
0!
0/
00
1(
#87000
1!
1/
10
0(
1=
17
06
05
04
01
1'
18
#90000
0!
0/
00
1(
#93000
1!
1/
10
0(
19
0:
0;
0<
0=
07
11
1#
0$
0%
0&
0'
08
#96000
0!
0/
00
1(
#99000
1!
1/
10
0(
09
1=
14
01
0#
1'
#102000
0!
0/
00
1(
#105000
1!
1/
10
0(
1<
0=
11
1&
0'
#108000
0!
0/
00
1(
#111000
1!
1/
10
0(
1=
15
04
01
1'
#114000
0!
0/
00
1(
#117000
1!
1/
10
0(
1;
0<
0=
11
1%
0&
0'
#120000
0!
0/
00
1(
#123000
1!
1/
10
0(
1=
14
01
1'
#126000
0!
0/
00
1(
#129000
1!
1/
10
0(
1<
0=
11
1&
0'
#132000
0!
0/
00
1(
#135000
1!
1/
10
0(
1=
16
05
04
01
1'
#138000
0!
0/
00
1(
#141000
1!
1/
10
0(
1:
0;
0<
0=
11
1$
0%
0&
0'
#144000
0!
0/
00
1(
#147000
1!
1/
10
0(
1=
14
01
1'
#150000
0!
0/
00
1(
#153000
1!
1/
10
0(
1<
0=
11
1&
0'
#156000
0!
0/
00
1(
#159000
1!
1/
10
0(
1=
15
04
01
1'
#162000
0!
0/
00
1(
#165000
1!
1/
10
0(
1;
0<
0=
11
1%
0&
0'
#168000
0!
0/
00
1(
#171000
1!
1/
10
0(
1=
14
01
1'
#174000
0!
0/
00
1(
#177000
1!
1/
10
0(
1<
0=
11
1&
0'
#180000
0!
0/
00
1(
#183000
1!
1/
10
0(
1=
17
06
05
04
01
1'
18
#186000
0!
0/
00
1(
#189000
1!
1/
10
0(
19
0:
0;
0<
0=
07
11
1#
0$
0%
0&
0'
08
#192000
0!
0/
00
1(
#195000
1!
1/
10
0(
09
1=
14
01
0#
1'
#198000
0!
0/
00
1(
